{
   "document": {
      "nodes": [
         {
            "object": "block",
            "type": "paragraph",
            "nodes": [
               {
                  "object": "text",
                  "leaves": [
                     {
                        "text": "Start to write something..."
                     }
                  ]
               }
            ]
         }
      ]
   }
}
