<?xml version="1.0" encoding="UTF-8" standalone="no"?>
<svg
   xmlns:dc="http://purl.org/dc/elements/1.1/"
   xmlns:cc="http://creativecommons.org/ns#"
   xmlns:rdf="http://www.w3.org/1999/02/22-rdf-syntax-ns#"
   xmlns:svg="http://www.w3.org/2000/svg"
   xmlns="http://www.w3.org/2000/svg"
   xmlns:sodipodi="http://sodipodi.sourceforge.net/DTD/sodipodi-0.dtd"
   xmlns:inkscape="http://www.inkscape.org/namespaces/inkscape"
   sodipodi:docname="circle_tick.svg"
   inkscape:version="1.1-dev (36e1d04, 2020-03-13)"
   id="svg8"
   version="1.1"
   viewBox="0 0 53.512754 53.512755"
   height="202.25293"
   width="202.25293">
  <defs
     id="defs2" />
  <sodipodi:namedview
     fit-margin-bottom="0"
     fit-margin-right="0"
     fit-margin-left="0"
     fit-margin-top="0"
     showguides="false"
     inkscape:snap-object-midpoints="true"
     inkscape:window-maximized="1"
     inkscape:window-y="-8"
     inkscape:window-x="-8"
     inkscape:window-height="1057"
     inkscape:window-width="1920"
     inkscape:pagecheckerboard="false"
     inkscape:snap-tangential="false"
     guidetolerance="10"
     gridtolerance="10"
     guidehiopacity="0.49803922"
     guidehicolor="#ffce00"
     guideopacity="0.15686275"
     guidecolor="#73978f"
     showborder="true"
     showgrid="false"
     inkscape:current-layer="layer1"
     inkscape:document-units="px"
     inkscape:cy="51.823119"
     inkscape:cx="-506.42027"
     inkscape:zoom="0.46514368"
     inkscape:pageshadow="2"
     inkscape:pageopacity="0"
     borderopacity="1"
     bordercolor="#3d3d3d"
     pagecolor="#292929"
     id="base"
     units="px"
     inkscape:showpageshadow="false">
    <inkscape:grid
       snapvisiblegridlinesonly="true"
       originy="57.406952"
       originx="-178.0141"
       empspacing="8"
       dotted="true"
       empopacity="0.04313725"
       empcolor="#bae4e4"
       opacity="0.03137255"
       color="#9296ac"
       id="grid833"
       type="xygrid" />
    <sodipodi:guide
       id="guide882"
       orientation="27.840855,0"
       position="-79.717619,17.294263" />
    <sodipodi:guide
       id="guide884"
       orientation="0,41.00882"
       position="84.666667,-22.104031" />
    <sodipodi:guide
       id="guide886"
       orientation="-27.840855,0"
       position="-68.867369,9.9280427" />
    <sodipodi:guide
       id="guide888"
       orientation="0,-41.00882"
       position="26.756377,26.756376" />
    <sodipodi:guide
       id="guide896"
       orientation="48.646072,0"
       position="-92.593369,26.482093" />
    <sodipodi:guide
       id="guide902"
       orientation="48.646035,0"
       position="-54.784979,26.482093" />
    <sodipodi:guide
       id="guide998"
       orientation="-140.65143,0"
       position="26.75638,26.756372" />
    <sodipodi:guide
       id="guide1013"
       orientation="66.1086,66.1086"
       position="15.251988,35.216073" />
    <sodipodi:guide
       id="guide1015"
       orientation="22.627426,-22.627426"
       position="55.290109,43.316422" />
    <sodipodi:guide
       id="guide1017"
       orientation="-66.1086,-66.1086"
       position="26.756382,11.738" />
    <sodipodi:guide
       id="guide1019"
       orientation="-22.627426,22.627426"
       position="9.2651484,29.229234" />
    <sodipodi:guide
       id="guide1056"
       orientation="-50.926375,50.926375"
       position="26.75638,26.756372" />
  </sodipodi:namedview>
  <metadata
     id="metadata5">
    <rdf:RDF>
      <cc:Work
         rdf:about="">
        <dc:format>image/svg+xml</dc:format>
        <dc:type
           rdf:resource="http://purl.org/dc/dcmitype/StillImage" />
        <dc:title></dc:title>
        <cc:license
           rdf:resource="" />
      </cc:Work>
    </rdf:RDF>
  </metadata>
  <g
     transform="translate(-283.0141,-91.093048)"
     id="layer1"
     inkscape:groupmode="layer"
     inkscape:label="Layer 1">
    <g
       id="g924">
      <g
         id="g912">
        <g
           id="g901">
          <g
             id="g891">
            <g
               id="g882">
              <g
                 id="g874">
                <g
                   id="g867">
                  <g
                     id="g861">
                    <g
                       id="g856"
                       transform="translate(0.80180859,0.66817382)">
                      <g
                         id="g852" />
                    </g>
                  </g>
                </g>
              </g>
            </g>
          </g>
        </g>
      </g>
    </g>
    <g
       id="g863">
      <g
         id="g923">
        <path
           id="path925"
           d="m 172.92123,105.23182 v 29.57855 c 0,5.04203 4.05922,9.10126 9.10125,9.10126 h 53.50371 c 5.04203,0 9.10125,-4.05923 9.10125,-9.10126 v -29.57855 z"
           style="color:#000000;fill:none;stroke-width:4.23333;stroke-linecap:square" />
      </g>
      <g
         id="g917">
        <path
           sodipodi:nodetypes="sscccssssccsscssssccsssscsccssssc"
           transform="scale(0.26458333)"
           d="m 687.96289,327.37891 c -23.34966,0 -42.40234,19.05214 -42.40234,42.40234 v 19.94531 8.00196 7.99414 103.79687 c 0,23.35019 19.05212,42.39453 42.40234,42.39453 h 202.21094 c 23.35022,0 42.40234,-19.04434 42.40234,-42.39453 v -103.79687 -15.9961 -19.94531 c 0,-23.3502 -19.05269,-42.40234 -42.40234,-42.40234 h -11.88589 v 35.92187 c 0,9.74507 -12.0253,20.63218 -21.77036,20.63218 h -9.60547 c -9.74507,0 -22.53046,-10.88711 -22.53046,-20.63218 V 327.37891 H 751.077 v 35.92187 c 0,9.74507 -12.02725,20.63218 -21.77231,20.63218 h -9.60352 c -9.74506,0 -22.53241,-10.88711 -22.53241,-20.63218 v -35.92187 z m -26.40625,78.34375 h 255.02344 v 103.79687 c 0,14.76272 -11.64353,26.39844 -26.40625,26.39844 H 687.96289 c -14.76272,0 -26.40625,-11.63572 -26.40625,-26.39844 z"
           style="color:#000000;fill:#ffffff;stroke-width:16;stroke-linecap:square"
           id="path941" />
      </g>
    </g>
    <rect
       ry="1.3936099"
       y="114.44059"
       x="184.99561"
       height="7.3662305"
       width="10.850249"
       id="rect865"
       style="fill:#ffffff;stroke:none;stroke-width:2.96333;stroke-linecap:square;stroke-miterlimit:4;stroke-dasharray:none" />
    <rect
       style="fill:#ffffff;stroke:none;stroke-width:2.96333;stroke-linecap:square;stroke-miterlimit:4;stroke-dasharray:none"
       id="rect867"
       width="10.850249"
       height="7.3662305"
       x="203.29648"
       y="114.44059"
       ry="1.3936099" />
    <rect
       ry="1.3936099"
       y="114.44059"
       x="222.804"
       height="7.3662305"
       width="10.850249"
       id="rect871"
       style="fill:#ffffff;stroke:none;stroke-width:2.96333;stroke-linecap:square;stroke-miterlimit:4;stroke-dasharray:none" />
    <rect
       style="fill:#ffffff;stroke:none;stroke-width:2.96333;stroke-linecap:square;stroke-miterlimit:4;stroke-dasharray:none"
       id="rect877"
       width="10.850249"
       height="7.3662305"
       x="184.99561"
       y="127.31153"
       ry="1.3936099" />
    <rect
       ry="1.3936099"
       y="127.31153"
       x="203.29648"
       height="7.3662305"
       width="10.850249"
       id="rect890"
       style="fill:#ffffff;stroke:none;stroke-width:2.96333;stroke-linecap:square;stroke-miterlimit:4;stroke-dasharray:none" />
    <path
       id="path952"
       d="m 190.90869,78.834378 h 1.56534 c 1.5882,0 2.86679,1.627342 2.86679,3.648751 v 11.988774 c 0,2.021409 -1.27859,3.648748 -2.86679,3.648748 h -1.56534 c -1.5882,0 -2.86679,-1.627339 -2.86679,-3.648748 V 82.483129 c 0,-2.021409 1.27859,-3.648751 2.86679,-3.648751 z"
       style="fill:#ffffff;stroke:none;stroke-width:3.9327;stroke-linecap:square;stroke-miterlimit:4;stroke-dasharray:none" />
    <path
       style="fill:#ffffff;stroke:none;stroke-width:3.9327;stroke-linecap:square;stroke-miterlimit:4;stroke-dasharray:none"
       d="m 224.75352,78.834378 h 1.56534 c 1.5882,0 2.86679,1.627342 2.86679,3.648751 v 11.988774 c 0,2.021409 -1.27859,3.648748 -2.86679,3.648748 h -1.56534 c -1.5882,0 -2.86679,-1.627339 -2.86679,-3.648748 V 82.483129 c 0,-2.021409 1.27859,-3.648751 2.86679,-3.648751 z"
       id="path954" />
    <path
       style="fill:#ffffff;stroke:none;stroke-width:3.9327;stroke-linecap:square;stroke-miterlimit:4;stroke-dasharray:none"
       d="m 190.90869,78.834378 h 1.56534 c 1.5882,0 2.86679,1.627342 2.86679,3.648751 v 11.988774 c 0,2.021409 -1.27859,3.648748 -2.86679,3.648748 h -1.56534 c -1.5882,0 -2.86679,-1.627339 -2.86679,-3.648748 V 82.483129 c 0,-2.021409 1.27859,-3.648751 2.86679,-3.648751 z"
       id="path956" />
    <path
       id="path958"
       d="m 224.75352,78.834378 h 1.56534 c 1.5882,0 2.86679,1.627342 2.86679,3.648751 v 11.988774 c 0,2.021409 -1.27859,3.648748 -2.86679,3.648748 h -1.56534 c -1.5882,0 -2.86679,-1.627339 -2.86679,-3.648748 V 82.483129 c 0,-2.021409 1.27859,-3.648751 2.86679,-3.648751 z"
       style="fill:#ffffff;stroke:none;stroke-width:3.9327;stroke-linecap:square;stroke-miterlimit:4;stroke-dasharray:none" />
    <g
       id="g1023">
      <path
         id="path1025"
         d="m 332.29352,117.84943 a 22.523045,22.523045 0 0 1 -22.52304,22.52304 22.523045,22.523045 0 0 1 -22.52305,-22.52304 22.523045,22.523045 0 0 1 22.52305,-22.523048 22.523045,22.523045 0 0 1 22.52304,22.523048 z"
         style="color:#000000;fill:none;stroke-width:6.35;stroke-linecap:square" />
      <path
         transform="matrix(0.26458333,0,0,0.26458333,283.0141,91.093048)"
         d="M 101.12305 4.0039062 C 47.623759 4.0038949 3.9999622 47.627665 4 101.12695 C 4 154.62624 47.623759 198.25004 101.12305 198.25 C 154.6223 198.25 198.25391 154.6262 198.25391 101.12695 C 198.25391 91.859159 196.94319 82.88833 194.5 74.388672 L 173.97656 94.912109 C 174.14756 96.962288 174.25586 99.030929 174.25586 101.12695 C 174.25586 141.65566 141.65175 174.25192 101.12305 174.25195 C 60.594342 174.25195 27.998085 141.6557 27.998047 101.12695 C 27.998047 60.59821 60.594304 28.001946 101.12305 28.001953 C 115.89116 28.001957 129.59489 32.345795 141.06445 39.808594 L 158.22656 22.646484 C 142.18005 10.932543 122.43694 4.0039108 101.12305 4.0039062 z "
         style="color:#000000;fill:#ffffff;stroke-width:24;stroke-linecap:square"
         id="path1027" />
    </g>
    <g
       transform="rotate(45,368.93465,36.874155)"
       id="g992">
      <path
         sodipodi:nodetypes="ccccc"
         id="path1005"
         d="m 372.4116,135.96771 h 20.41251 v 8.46667 H 372.4116 Z"
         style="color:#000000;fill:#ffffff;stroke-width:10.9076;stroke-linecap:square" />
      <path
         sodipodi:nodetypes="ccccc"
         transform="rotate(90)"
         id="path1009"
         d="m 108.12791,-392.8241 36.30646,0 v 8.46667 l -36.30646,0 z"
         style="color:#000000;fill:#ffffff;stroke-width:16.7096;stroke-linecap:square" />
    </g>
  </g>
</svg>
